~void main () {
    ~int qtdeTermos;
    ~int v1 = 0;
    ~int v2 = 1;
    ~int contador = 2;

    #write( "Quantos termos a sequencia tera?" );
    #read(qtdeTermos);

    #if (qtdeTermos >= 1) {
        #write( "1" );
    }

    #while (contador <= qtdeTermos) {
        soma = v1 + v2;
        v1 = v2;
        v2 = soma;
        #write (soma);
        contador = contador + 1;
    }
}
