----------------------------------------------------------
Token >> valor lexico "~void" categoria 15 posicao 1 0
Token >> valor lexico "main" categoria 24 posicao 1 6
Token >> valor lexico "(" categoria 25 posicao 1 11
Token >> valor lexico ")" categoria 26 posicao 1 12
Token >> valor lexico "{" categoria 29 posicao 1 14
Token >> valor lexico "#write" categoria 21 posicao 2 0
Token >> valor lexico "(" categoria 25 posicao 2 7
Token >> valor lexico "\"Alo Mundo!\"" categoria 32 posicao 2 9
Token >> valor lexico ")" categoria 26 posicao 2 22
Token >> valor lexico ";" categoria 36 posicao 2 23
Token >> valor lexico "}" categoria 30 posicao 3 0
----------------------------------------------------------
main (1) = 'prVoid' (~void) 'prMain' (main) 'srParO' (() 'srParC' ()) 'srChaO' ({) ls (2) 'srChaC' (})
ls (2) = write (3)
write (3) = 'prWrite' (#write) 'srParO' (() varValor (4) 'srParC' ())
varValor (4) = 'cteStr' ("Alo Mundo!")
----------------------------------------------------------
Nao foi identificado nenhum erro :)
----------------------------------------------------------
Feito.
